{
  "chicago_crimes": {
  "dataset_path": "<path_to_project>/public_safety/datasets",
  "crimes_url": "https://data.cityofchicago.org/resource/ijzp-q8t2.json",
  "iucr_codes_url": "https://data.cityofchicago.org/resource/c7ck-438e.json",
  "dataset_crimes_full_url": "https://drive.google.com/open?id=15kQHWkGh9FmDuH5OqwMUSVu-4rqAzO4u",
  "dataset_crimes_part_url": "https://drive.google.com/file/d/166Z-plxeZ4K90JAj4_gHvrWdHvBeOU4a/view",
  "dataset_crimes_lite": "dataset_crimes_lite.rda",
  "dataset_crimes_part": "dataset_crimes_part.rda",
  "dataset_crimes_full": "dataset_crimes_full.rda",
  "dataset_iucr_codes": "dataset_iucr_codes.rda",
  "email": "<project_email>",
  "app_token": "<project_token>",
  "password": "<project_email_password>"
  }
}
